Library\Bee\artifacts\mvdfrm\Unity.2D.Animation.Editor.ref.dll_6E2D3F6C060285B2.mvfrm
Library\Bee\artifacts\mvdfrm\Unity.2D.Animation.Runtime.ref.dll_BF170BA06B503859.mvfrm
Library\Bee\artifacts\mvdfrm\Unity.2D.Aseprite.Common.ref.dll_B1C4CE264117CF1F.mvfrm
Library\Bee\artifacts\mvdfrm\Unity.2D.Aseprite.Editor.ref.dll_AEADC621423EF9A1.mvfrm
Library\Bee\artifacts\mvdfrm\Unity.2D.Common.Editor.ref.dll_E108E0DA11EEB74B.mvfrm
Library\Bee\artifacts\mvdfrm\Unity.2D.Common.Path.Editor.ref.dll_2EB141AA64AD9B0E.mvfrm
Library\Bee\artifacts\mvdfrm\Unity.2D.Common.Runtime.ref.dll_5587D9B0E574ECB0.mvfrm
Library\Bee\artifacts\mvdfrm\Unity.2D.IK.Editor.ref.dll_62859BF718F90224.mvfrm
Library\Bee\artifacts\mvdfrm\Unity.2D.IK.Runtime.ref.dll_2430AF9EA10453C7.mvfrm
Library\Bee\artifacts\mvdfrm\Unity.2D.PixelPerfect.Editor.ref.dll_C4DE568FD79A6A9F.mvfrm
Library\Bee\artifacts\mvdfrm\Unity.2D.PixelPerfect.ref.dll_8930213CCFEEC632.mvfrm
Library\Bee\artifacts\mvdfrm\Unity.2D.Psdimporter.Editor.ref.dll_E4FF3D879E912623.mvfrm
Library\Bee\artifacts\mvdfrm\Unity.2D.Sprite.Editor.ref.dll_0169DD889AE82A51.mvfrm
Library\Bee\artifacts\mvdfrm\Unity.2D.SpriteShape.Editor.ref.dll_48833A24DB5DB23A.mvfrm
Library\Bee\artifacts\mvdfrm\Unity.2D.SpriteShape.Runtime.ref.dll_31B254B6B6E75F51.mvfrm
Library\Bee\artifacts\mvdfrm\Unity.2D.Tilemap.Editor.ref.dll_217A589FE1735158.mvfrm
Library\Bee\artifacts\mvdfrm\Unity.2D.Tilemap.Extras.Editor.ref.dll_C42BA467554B6753.mvfrm
Library\Bee\artifacts\mvdfrm\Unity.2D.Tilemap.Extras.ref.dll_152C7FE740488E3E.mvfrm
Library\Bee\artifacts\mvdfrm\Unity.AI.Navigation.Editor.ConversionSystem.ref.dll_E86391A30E30A641.mvfrm
Library\Bee\artifacts\mvdfrm\Unity.AI.Navigation.Editor.ref.dll_D159463F08EBC828.mvfrm
Library\Bee\artifacts\mvdfrm\Unity.AI.Navigation.Updater.ref.dll_624D4C5EA49E89F4.mvfrm
Library\Bee\artifacts\mvdfrm\Unity.AI.Navigation.ref.dll_4DBD8B01BD2AE419.mvfrm
Library\Bee\artifacts\mvdfrm\Unity.Burst.Editor.ref.dll_4F7B73E229D756B2.mvfrm
Library\Bee\artifacts\mvdfrm\Unity.Burst.ref.dll_A9D47564F0C574EF.mvfrm
Library\Bee\artifacts\mvdfrm\Unity.Collections.ref.dll_857DC386F81DA2F4.mvfrm
Library\Bee\artifacts\mvdfrm\Unity.InternalAPIEditorBridge.001.ref.dll_DB0A50572B977225.mvfrm
Library\Bee\artifacts\mvdfrm\Unity.InternalAPIEngineBridge.001.ref.dll_CD85090190A6596A.mvfrm
Library\Bee\artifacts\mvdfrm\Unity.Mathematics.Editor.ref.dll_BC6BEDEBC6F8BA8C.mvfrm
Library\Bee\artifacts\mvdfrm\Unity.Mathematics.ref.dll_09002A919DF91B75.mvfrm
Library\Bee\artifacts\mvdfrm\Unity.PlasticSCM.Editor.ref.dll_038935ADFCD4A11D.mvfrm
Library\Bee\artifacts\mvdfrm\Unity.Rider.Editor.ref.dll_07D7D7B7487B1198.mvfrm
Library\Bee\artifacts\mvdfrm\Unity.TextMeshPro.Editor.ref.dll_37E92434B2D8A6CF.mvfrm
Library\Bee\artifacts\mvdfrm\Unity.TextMeshPro.ref.dll_A4B478B3CE6E8702.mvfrm
Library\Bee\artifacts\mvdfrm\Unity.Timeline.Editor.ref.dll_0DA365A2C678CBF9.mvfrm
Library\Bee\artifacts\mvdfrm\Unity.Timeline.ref.dll_733236CB90539738.mvfrm
Library\Bee\artifacts\mvdfrm\Unity.VSCode.Editor.ref.dll_4366BA9A3B756B20.mvfrm
Library\Bee\artifacts\mvdfrm\Unity.VisualScripting.Core.Editor.ref.dll_065CC54F8DD2A924.mvfrm
Library\Bee\artifacts\mvdfrm\Unity.VisualScripting.Core.ref.dll_2F2D99604E6B235D.mvfrm
Library\Bee\artifacts\mvdfrm\Unity.VisualScripting.Flow.Editor.ref.dll_838DADFE9CB13465.mvfrm
Library\Bee\artifacts\mvdfrm\Unity.VisualScripting.Flow.ref.dll_763E79B6D074980C.mvfrm
Library\Bee\artifacts\mvdfrm\Unity.VisualScripting.SettingsProvider.Editor.ref.dll_DB47A982A779F40F.mvfrm
Library\Bee\artifacts\mvdfrm\Unity.VisualScripting.Shared.Editor.ref.dll_634EB3DA1CD7E5BE.mvfrm
Library\Bee\artifacts\mvdfrm\Unity.VisualScripting.State.Editor.ref.dll_8F55C37B46854258.mvfrm
Library\Bee\artifacts\mvdfrm\Unity.VisualScripting.State.ref.dll_06ABD95DCD3386E9.mvfrm
Library\Bee\artifacts\mvdfrm\Unity.VisualStudio.Editor.ref.dll_0788C6E0BDFBBC54.mvfrm
Library\Bee\artifacts\mvdfrm\UnityEditor.UI.ref.dll_5DAE2CC8CF4B8C9E.mvfrm
Library\Bee\artifacts\mvdfrm\UnityEngine.UI.ref.dll_1A140323D56DB509.mvfrm
Library\Bee\artifacts\mvdfrm\UnityEditor.CoreModule.dll_F0DA146AA69D4A62.mvfrm
Library\Bee\artifacts\mvdfrm\UnityEditor.DeviceSimulatorModule.dll_0D87F2DC8177FEFF.mvfrm
Library\Bee\artifacts\mvdfrm\UnityEditor.DiagnosticsModule.dll_5541484324CDD98D.mvfrm
Library\Bee\artifacts\mvdfrm\UnityEditor.dll_58D9248CA12E9193.mvfrm
Library\Bee\artifacts\mvdfrm\UnityEditor.EditorToolbarModule.dll_33F17F8BB2E9C2EF.mvfrm
Library\Bee\artifacts\mvdfrm\UnityEditor.GraphViewModule.dll_464CF8EA1F8BCDC4.mvfrm
Library\Bee\artifacts\mvdfrm\UnityEditor.PresetsUIModule.dll_01B331CC21E425C9.mvfrm
Library\Bee\artifacts\mvdfrm\UnityEditor.QuickSearchModule.dll_E050C9507DA4D5E6.mvfrm
Library\Bee\artifacts\mvdfrm\UnityEditor.SceneTemplateModule.dll_5790F049B1D66D27.mvfrm
Library\Bee\artifacts\mvdfrm\UnityEditor.SceneViewModule.dll_84FCDBF214AE9AD2.mvfrm
Library\Bee\artifacts\mvdfrm\UnityEditor.TextCoreFontEngineModule.dll_67D2C8719DD5C5A0.mvfrm
Library\Bee\artifacts\mvdfrm\UnityEditor.TextCoreTextEngineModule.dll_AFBAFEE32D597EBE.mvfrm
Library\Bee\artifacts\mvdfrm\UnityEditor.UIBuilderModule.dll_9AD5A606924446F8.mvfrm
Library\Bee\artifacts\mvdfrm\UnityEditor.UIElementsModule.dll_9F1F24CB95A8325E.mvfrm
Library\Bee\artifacts\mvdfrm\UnityEditor.UIElementsSamplesModule.dll_DF4D9C1D08F07EEF.mvfrm
Library\Bee\artifacts\mvdfrm\UnityEditor.UnityConnectModule.dll_753DD003E4F52A18.mvfrm
Library\Bee\artifacts\mvdfrm\UnityEngine.AccessibilityModule.dll_8A365BE0B24C94C4.mvfrm
Library\Bee\artifacts\mvdfrm\UnityEngine.AIModule.dll_A0B4251BE81EA076.mvfrm
Library\Bee\artifacts\mvdfrm\UnityEngine.AndroidJNIModule.dll_1D680D9EDEC7A134.mvfrm
Library\Bee\artifacts\mvdfrm\UnityEngine.AnimationModule.dll_14D27512F9E8A26A.mvfrm
Library\Bee\artifacts\mvdfrm\UnityEngine.ARModule.dll_5A26EA1F453BFF3F.mvfrm
Library\Bee\artifacts\mvdfrm\UnityEngine.AssetBundleModule.dll_2439FC41E00B8AD8.mvfrm
Library\Bee\artifacts\mvdfrm\UnityEngine.AudioModule.dll_C84FD964067C58DC.mvfrm
Library\Bee\artifacts\mvdfrm\UnityEngine.ClothModule.dll_2F38365EE09937C0.mvfrm
Library\Bee\artifacts\mvdfrm\UnityEngine.ClusterInputModule.dll_F4DA4519967CFCDE.mvfrm
Library\Bee\artifacts\mvdfrm\UnityEngine.ClusterRendererModule.dll_1334B54DF1330C83.mvfrm
Library\Bee\artifacts\mvdfrm\UnityEngine.ContentLoadModule.dll_BD505582AE8E32C5.mvfrm
Library\Bee\artifacts\mvdfrm\UnityEngine.CoreModule.dll_13FAE7BD4EA2B58D.mvfrm
Library\Bee\artifacts\mvdfrm\UnityEngine.CrashReportingModule.dll_DE2680C81B45C345.mvfrm
Library\Bee\artifacts\mvdfrm\UnityEngine.DirectorModule.dll_3C444B5C05CD7EEA.mvfrm
Library\Bee\artifacts\mvdfrm\UnityEngine.dll_8B7D6B64FFA21E78.mvfrm
Library\Bee\artifacts\mvdfrm\UnityEngine.DSPGraphModule.dll_4195ACC5782E500B.mvfrm
Library\Bee\artifacts\mvdfrm\UnityEngine.GameCenterModule.dll_47B557B9A5089225.mvfrm
Library\Bee\artifacts\mvdfrm\UnityEngine.GIModule.dll_38F06E2983CD8890.mvfrm
Library\Bee\artifacts\mvdfrm\UnityEngine.GridModule.dll_F16C03AB66F74B84.mvfrm
Library\Bee\artifacts\mvdfrm\UnityEngine.HotReloadModule.dll_961B3318D51BBDEC.mvfrm
Library\Bee\artifacts\mvdfrm\UnityEngine.ImageConversionModule.dll_7F26B2FE7357C477.mvfrm
Library\Bee\artifacts\mvdfrm\UnityEngine.IMGUIModule.dll_00AF78CACCADECBD.mvfrm
Library\Bee\artifacts\mvdfrm\UnityEngine.InputLegacyModule.dll_B57F176077FD40C9.mvfrm
Library\Bee\artifacts\mvdfrm\UnityEngine.InputModule.dll_2EC5A1147CB47D80.mvfrm
Library\Bee\artifacts\mvdfrm\UnityEngine.JSONSerializeModule.dll_EA4DE51CB187F54E.mvfrm
Library\Bee\artifacts\mvdfrm\UnityEngine.LocalizationModule.dll_33270F6C2DF8EFD7.mvfrm
Library\Bee\artifacts\mvdfrm\UnityEngine.ParticleSystemModule.dll_3138CA1489574ED3.mvfrm
Library\Bee\artifacts\mvdfrm\UnityEngine.PerformanceReportingModule.dll_EDFEBC3D9009174C.mvfrm
Library\Bee\artifacts\mvdfrm\UnityEngine.Physics2DModule.dll_617865039AE599FF.mvfrm
Library\Bee\artifacts\mvdfrm\UnityEngine.PhysicsModule.dll_03A4659FB4E3F72D.mvfrm
Library\Bee\artifacts\mvdfrm\UnityEngine.ProfilerModule.dll_6E8A84929F2705F7.mvfrm
Library\Bee\artifacts\mvdfrm\UnityEngine.PropertiesModule.dll_74F096F817F3F661.mvfrm
Library\Bee\artifacts\mvdfrm\UnityEngine.RuntimeInitializeOnLoadManagerInitializerModule.dll_80E3DFF82E5188C8.mvfrm
Library\Bee\artifacts\mvdfrm\UnityEngine.ScreenCaptureModule.dll_043592A1C5F421B0.mvfrm
Library\Bee\artifacts\mvdfrm\UnityEngine.SharedInternalsModule.dll_0337F1D3EA85BFC7.mvfrm
Library\Bee\artifacts\mvdfrm\UnityEngine.SpriteMaskModule.dll_30E1CA49C678279F.mvfrm
Library\Bee\artifacts\mvdfrm\UnityEngine.SpriteShapeModule.dll_3D9B299C95ADC2E2.mvfrm
Library\Bee\artifacts\mvdfrm\UnityEngine.StreamingModule.dll_C9676263497059A8.mvfrm
Library\Bee\artifacts\mvdfrm\UnityEngine.SubstanceModule.dll_A61276AC94C357B6.mvfrm
Library\Bee\artifacts\mvdfrm\UnityEngine.SubsystemsModule.dll_9B8F30AB94C00FB2.mvfrm
Library\Bee\artifacts\mvdfrm\UnityEngine.TerrainModule.dll_1DEAE10E8AA2401B.mvfrm
Library\Bee\artifacts\mvdfrm\UnityEngine.TerrainPhysicsModule.dll_31B372E7A29A4960.mvfrm
Library\Bee\artifacts\mvdfrm\UnityEngine.TextCoreFontEngineModule.dll_E63243C4B0D3846B.mvfrm
Library\Bee\artifacts\mvdfrm\UnityEngine.TextCoreTextEngineModule.dll_2E1A7A3640573D89.mvfrm
Library\Bee\artifacts\mvdfrm\UnityEngine.TextRenderingModule.dll_2D7504AC7D2BA1A5.mvfrm
Library\Bee\artifacts\mvdfrm\UnityEngine.TilemapModule.dll_BCE7488FA25F2124.mvfrm
Library\Bee\artifacts\mvdfrm\UnityEngine.TLSModule.dll_F688D3BACC7D34C1.mvfrm
Library\Bee\artifacts\mvdfrm\UnityEngine.UIElementsModule.dll_9FCD921397EC4BA9.mvfrm
Library\Bee\artifacts\mvdfrm\UnityEngine.UIModule.dll_9C27C3494465A622.mvfrm
Library\Bee\artifacts\mvdfrm\UnityEngine.UmbraModule.dll_4324857C93A3044F.mvfrm
Library\Bee\artifacts\mvdfrm\UnityEngine.UnityAnalyticsCommonModule.dll_893D7981A9F1B5AA.mvfrm
Library\Bee\artifacts\mvdfrm\UnityEngine.UnityAnalyticsModule.dll_50D83ADE357EA0CF.mvfrm
Library\Bee\artifacts\mvdfrm\UnityEngine.UnityConnectModule.dll_629D5412DF7D2AC3.mvfrm
Library\Bee\artifacts\mvdfrm\UnityEngine.UnityCurlModule.dll_47EF164469FC9457.mvfrm
Library\Bee\artifacts\mvdfrm\UnityEngine.UnityTestProtocolModule.dll_9B10520F62EBD445.mvfrm
Library\Bee\artifacts\mvdfrm\UnityEngine.UnityWebRequestAssetBundleModule.dll_CBD78191EB8446E0.mvfrm
Library\Bee\artifacts\mvdfrm\UnityEngine.UnityWebRequestAudioModule.dll_65FB101C1673E1E4.mvfrm
Library\Bee\artifacts\mvdfrm\UnityEngine.UnityWebRequestModule.dll_90C5BAA87E4C5EF6.mvfrm
Library\Bee\artifacts\mvdfrm\UnityEngine.UnityWebRequestTextureModule.dll_367C4C3E3BFD5C39.mvfrm
Library\Bee\artifacts\mvdfrm\UnityEngine.UnityWebRequestWWWModule.dll_F8DCBF923016F9F5.mvfrm
Library\Bee\artifacts\mvdfrm\UnityEngine.VehiclesModule.dll_B40744DB7FF74E85.mvfrm
Library\Bee\artifacts\mvdfrm\UnityEngine.VFXModule.dll_77676C29A2EA9E2E.mvfrm
Library\Bee\artifacts\mvdfrm\UnityEngine.VideoModule.dll_ED595DCEC90E7481.mvfrm
Library\Bee\artifacts\mvdfrm\UnityEngine.VirtualTexturingModule.dll_54C6B8EBAEFB61EB.mvfrm
Library\Bee\artifacts\mvdfrm\UnityEngine.VRModule.dll_EEF9E9CEE6202B9A.mvfrm
Library\Bee\artifacts\mvdfrm\UnityEngine.WindModule.dll_8A49C2E5DFD933F6.mvfrm
Library\Bee\artifacts\mvdfrm\UnityEngine.XRModule.dll_21B8ACD36F5A78F8.mvfrm
Library\Bee\artifacts\mvdfrm\Unity.Collections.LowLevel.ILSupport.dll_2E40CE80E145E521.mvfrm
Library\Bee\artifacts\mvdfrm\Unity.VisualScripting.Antlr3.Runtime.dll_FBC62C826EB2B4B0.mvfrm